2018-04-28 23:39:25 - DEBUG --> Credentails XML = <credentials><emailAddress>biuro@karo-net.pl</emailAddress><password>KaroNet2013</password></credentials>
2018-04-28 23:39:25 - DEBUG --> V2 email/password = biuro@karo-net.pl / KaroNet2013
2018-04-28 23:43:51 - DEBUG --> Credentails XML = <credentials><emailAddress>biuro@karo-net.pl</emailAddress><password>KaroNet2013</password></credentials>
2018-04-28 23:43:51 - DEBUG --> V2 email/password = biuro@karo-net.pl / KaroNet2013
2018-04-28 23:43:51 - INFO --> Success!
2018-04-28 23:45:59 - DEBUG --> Credentails XML = <credentials><emailAddress>biuro@karo-net.pl</emailAddress><password>KaroNet2013</password></credentials>
2018-04-28 23:45:59 - DEBUG --> V2 email/password = biuro@karo-net.pl / KaroNet2013
2018-04-28 23:45:59 - INFO --> Success!
2018-04-28 23:47:19 - DEBUG --> Credentails XML = <credentials><emailAddress>biuro@karo-net.pl</emailAddress><password>KaroNet2013</password></credentials>
2018-04-28 23:47:19 - DEBUG --> V2 email/password = biuro@karo-net.pl / KaroNet2013
2018-04-28 23:47:19 - INFO --> Success!
2018-04-28 23:47:19 - DEBUG --> inserting new authToken: 16562559ed4db05fd0a682e94761de89
2018-04-28 23:49:05 - DEBUG --> Credentails XML = <credentials><emailAddress>biuro@karo-net.pl</emailAddress><password>KaroNet2013</password></credentials>
2018-04-28 23:49:05 - DEBUG --> V2 email/password = biuro@karo-net.pl / KaroNet2013
2018-04-28 23:49:05 - INFO --> Success!
2018-04-28 23:49:05 - DEBUG --> inserting new authToken: 16562559ed4db05fd0a682e94761de89
2018-04-28 23:52:23 - DEBUG --> Credentails XML = <credentials><emailAddress>biuro@karo-net.pl</emailAddress><password>KaroNet2013</password></credentials>
2018-04-28 23:52:23 - DEBUG --> V2 email/password = biuro@karo-net.pl / KaroNet2013
2018-04-28 23:52:23 - INFO --> Login success!
2018-04-28 23:53:28 - DEBUG --> Credentails XML = <credentials><emailAddress>biuro@karo-net.pl</emailAddress><password>KaroNet2013</password></credentials>
2018-04-28 23:53:28 - DEBUG --> V2 email/password = biuro@karo-net.pl / KaroNet2013
2018-04-28 23:53:28 - INFO --> Login success!
2018-04-28 23:54:27 - DEBUG --> Credentails XML = <credentials><emailAddress>biuro@karo-net.pl</emailAddress><password>KaroNet2013</password></credentials>
2018-04-28 23:54:27 - DEBUG --> V2 email/password = biuro@karo-net.pl / KaroNet2013
2018-04-28 23:54:27 - INFO --> Login success!
2018-04-28 23:54:27 - INFO --> <?xml version="1.0"?>
<result httpResponseCode="200"><authToken>16562559ed4db05fd0a682e94761de89</authToken></result>

2018-04-29 0:00:41 - DEBUG --> Credentails XML = <credentials><emailAddress>biuro@karo-net.pl</emailAddress><password>KaroNet2013</password></credentials>
2018-04-29 0:00:41 - DEBUG --> V2 email/password = biuro@karo-net.pl / KaroNet2013
2018-04-29 0:00:41 - INFO --> Login success!
2018-04-29 7:51:19 - DEBUG --> V2 email/password = biuro@karo-net.pl / ed3046ba3bf6d9615866f9f4776c42aa
2018-04-29 7:51:19 - INFO --> Login success!
2018-04-29 7:52:45 - DEBUG --> V2 email/password = biuro@karo-net.pl / ed3046ba3bf6d9615866f9f4776c42aa
2018-04-29 7:52:45 - INFO --> Login success!
2018-04-29 12:51:56 - DEBUG --> V2 email/password = biuro@karo-net.pl / ed3046ba3bf6d9615866f9f4776c42aa
2018-04-29 12:51:56 - INFO --> Login success!
2018-04-29 12:52:21 - DEBUG --> V2 email/password = biuro@karo-net.pl / ed3046ba3bf6d9615866f9f4776c42aa
2018-04-29 12:52:21 - INFO --> Login success!
2018-04-29 12:53:01 - DEBUG --> V2 email/password = biuro@karo-net.pl / ed3046ba3bf6d9615866f9f4776c42aa
2018-04-29 12:53:01 - INFO --> Login success!
2018-04-29 19:25:52 - DEBUG --> V2 email/password = biuro@karo-net.pl / ed3046ba3bf6d9615866f9f4776c42aa
2018-04-29 19:25:52 - INFO --> Login success!
2018-04-29 19:30:48 - DEBUG --> V2 email/password = biuro@karo-net.pl / ed3046ba3bf6d9615866f9f4776c42aa
2018-04-29 19:30:48 - INFO --> Login success!
2018-04-29 19:32:53 - DEBUG --> V2 email/password = biuro@karo-net.pl / ed3046ba3bf6d9615866f9f4776c42aa
2018-04-29 19:32:53 - INFO --> Login success!
